1 2 1
1 3 1
1 4 1
1 5 1
1 6 1
1 7 1
1 8 1
1 9 1
1 10 1
1 11 1
2 12 1
2 13 1
2 14 1
2 15 1
2 16 1
2 17 1
2 18 1
2 19 1
2 20 1
2 21 1
3 22 1
3 23 1
3 24 1
3 25 1
3 26 1
3 27 1
3 28 1
3 29 1
3 30 1
3 31 1
4 32 1
4 33 1
4 34 1
4 35 1
4 36 1
4 37 1
4 38 1
4 39 1
4 40 1
4 41 1
5 42 1
5 43 1
5 44 1
5 45 1
5 46 1
5 47 1
5 48 1
5 49 1
5 50 1
5 51 1
5 52 1
5 53 1
6 54 1
6 55 1
6 56 1
6 57 1
6 58 1
6 59 1
6 60 1
6 61 1
11 62 1
11 63 1
11 64 1
11 65 1
11 66 1
22 67 1
22 68 1
22 69 1
22 70 1
22 71 1
32 72 1
32 73 1
32 74 1
32 75 1
32 76 1
32 77 1
32 78 1
32 79 1
32 80 1
45 81 1
45 82 1
45 83 1
45 84 1
45 85 1
45 86 1
45 87 1
45 88 1
45 89 1
45 90 1
45 91 1
56 92 1
56 93 1
56 94 1
56 95 1
56 96 1
56 97 1
56 98 1
56 99 1
56 100 1
63 101 1
63 102 1
63 103 1
63 104 1
63 105 1
63 106 1
63 107 1
63 108 1
63 109 1
63 110 1
63 111 1
67 112 1
67 113 1
67 114 1
67 115 1
67 116 1
67 117 1
67 118 1
67 119 1
64 120 1
64 121 1
64 122 1
64 123 1
64 124 1
64 125 1
64 126 1
77 127 1
77 128 1
77 129 1
77 130 1
77 131 1
122 132 1
122 133 1
122 134 1
122 135 1
122 136 1
122 137 1
122 138 1
122 139 1
122 140 1
122 141 1
122 142 1
122 143 1
134 144 1
134 145 1
134 146 1
134 147 1
134 148 1
134 149 1
134 150 1
134 151 1
134 152 1
134 153 1
134 154 1
134 155 1
155 156 1
155 157 1
155 158 1
155 159 1
155 160 1
155 161 1
155 162 1
155 163 1
155 164 1
155 165 1
155 166 1
155 167 1
155 168 1
158 169 1
158 170 1
158 171 1
158 172 1
158 173 1
158 174 1
158 175 1
158 176 1
158 177 1
158 178 1
158 179 1
161 180 1
161 181 1
161 182 1
161 183 1
161 184 1
161 185 1
161 186 1
161 187 1
161 188 1
161 189 1
161 190 1
161 191 1
163 192 1
163 193 1
163 194 1
163 195 1
163 196 1
163 197 1
163 198 1
163 199 1
163 200 1
163 201 1
174 202 1
174 203 1
174 204 1
174 205 1
174 206 1
174 207 1
174 208 1
174 209 1
174 210 1
174 211 1
174 212 1
174 213 1
174 214 1
174 215 1
174 216 1
176 217 1
176 218 1
176 219 1
176 220 1
176 221 1
176 222 1
176 223 1
176 224 1
176 225 1
176 226 1
176 227 1
176 228 1
177 229 1
177 230 1
177 231 1
177 232 1
177 233 1
177 234 1
177 235 1
177 236 1
177 237 1
177 238 1
177 239 1
181 240 1
181 241 1
181 242 1
181 243 1
181 244 1
181 245 1
181 246 1
181 247 1
181 248 1
181 249 1
181 250 1
181 251 1
183 252 1
183 253 1
183 254 1
183 255 1
183 256 1
183 257 1
183 258 1
183 259 1
183 260 1
183 261 1
222 262 1
222 263 1
222 264 1
222 265 1
222 266 1
222 267 1
222 268 1
222 269 1
222 270 1
222 271 1
233 272 1
233 273 1
233 274 1
233 275 1
233 276 1
233 277 1
233 278 1
233 279 1
233 280 1
233 281 1
234 282 1
234 283 1
234 284 1
234 285 1
234 286 1
234 287 1
234 288 1
234 289 1
234 290 1
234 291 1
235 292 1
235 293 1
235 294 1
235 295 1
235 296 1
235 297 1
235 298 1
235 299 1
235 300 1
235 301 1
235 302 1
235 303 1
246 304 1
246 305 1
246 306 1
246 307 1
246 308 1
246 309 1
246 310 1
246 311 1
246 312 1
246 313 1
246 314 1
246 315 1
246 316 1
249 317 1
249 318 1
249 319 1
249 320 1
249 321 1
266 322 1
266 323 1
266 324 1
266 325 1
266 326 1
266 327 1
266 328 1
266 329 1
266 330 1
287 331 1
287 332 1
287 333 1
287 334 1
287 335 1
287 336 1
287 337 1
287 338 1
287 339 1
287 340 1
287 341 1
289 342 1
289 343 1
289 344 1
289 345 1
289 346 1
289 347 1
289 348 1
289 349 1
289 350 1
292 351 1
292 352 1
292 353 1
292 354 1
292 355 1
292 356 1
292 357 1
292 358 1
292 359 1
292 360 1
292 361 1
293 362 1
293 363 1
293 364 1
293 365 1
293 366 1
293 367 1
293 368 1
293 369 1
293 370 1
293 371 1
293 372 1
293 373 1
293 374 1
293 375 1
293 376 1
294 377 1
294 378 1
294 379 1
294 380 1
294 381 1
294 382 1
294 383 1
294 384 1
300 385 1
300 386 1
300 387 1
300 388 1
300 389 1
300 390 1
300 391 1
300 392 1
300 393 1
301 394 1
301 395 1
301 396 1
301 397 1
301 398 1
301 399 1
301 400 1
301 401 1
301 402 1
301 403 1
301 404 1
301 405 1
302 406 1
302 407 1
302 408 1
302 409 1
302 410 1
302 411 1
302 412 1
302 413 1
302 414 1
302 415 1
302 416 1
302 417 1
302 418 1
303 419 1
303 420 1
303 421 1
303 422 1
303 423 1
303 424 1
303 425 1
303 426 1
303 427 1
303 428 1
303 429 1
304 430 1
304 431 1
304 432 1
304 433 1
304 434 1
304 435 1
304 436 1
304 437 1
304 438 1
304 439 1
304 440 1
304 441 1
307 442 1
307 443 1
307 444 1
307 445 1
307 446 1
307 447 1
307 448 1
307 449 1
307 450 1
307 451 1
308 452 1
308 453 1
308 454 1
308 455 1
308 456 1
308 457 1
308 458 1
308 459 1
308 460 1
308 461 1
308 462 1
308 463 1
308 464 1
308 465 1
308 466 1
311 467 1
311 468 1
311 469 1
311 470 1
311 471 1
311 472 1
311 473 1
311 474 1
311 475 1
311 476 1
311 477 1
311 478 1
313 479 1
313 480 1
313 481 1
313 482 1
313 483 1
313 484 1
313 485 1
313 486 1
313 487 1
313 488 1
313 489 1
316 490 1
316 491 1
316 492 1
316 493 1
316 494 1
316 495 1
316 496 1
316 497 1
316 498 1
316 499 1
316 500 1
316 501 1
317 502 1
317 503 1
317 504 1
317 505 1
317 506 1
317 507 1
317 508 1
317 509 1
317 510 1
317 511 1
318 512 1
318 513 1
318 514 1
318 515 1
318 516 1
318 517 1
318 518 1
318 519 1
318 520 1
318 521 1
318 522 1
319 523 1
319 524 1
319 525 1
319 526 1
319 527 1
319 528 1
319 529 1
319 530 1
319 531 1
320 532 1
320 533 1
320 534 1
320 535 1
320 536 1
320 537 1
320 538 1
320 539 1
320 540 1
320 541 1
321 542 1
321 543 1
321 544 1
321 545 1
321 546 1
321 547 1
321 548 1
321 549 1
321 550 1
321 551 1
322 552 1
322 553 1
322 554 1
322 555 1
322 556 1
322 557 1
322 558 1
322 559 1
322 560 1
322 561 1
323 562 1
323 563 1
323 564 1
323 565 1
323 566 1
323 567 1
323 568 1
323 569 1
323 570 1
323 571 1
324 572 1
324 573 1
324 574 1
324 575 1
324 576 1
324 577 1
324 578 1
324 579 1
324 580 1
324 581 1
325 582 1
325 583 1
325 584 1
325 585 1
325 586 1
325 587 1
325 588 1
325 589 1
325 590 1
325 591 1
326 592 1
326 593 1
326 594 1
326 595 1
326 596 1
326 597 1
326 598 1
326 599 1
326 600 1
326 601 1
327 602 1
327 603 1
327 604 1
327 605 1
327 606 1
327 607 1
327 608 1
327 609 1
327 610 1
327 611 1
327 612 1
328 613 1
328 614 1
328 615 1
328 616 1
328 617 1
328 618 1
328 619 1
328 620 1
328 621 1
329 622 1
329 623 1
329 624 1
329 625 1
329 626 1
329 627 1
329 628 1
329 629 1
329 630 1
329 631 1
330 632 1
330 633 1
330 634 1
330 635 1
330 636 1
330 637 1
330 638 1
330 639 1
330 640 1
330 641 1
380 642 1
380 643 1
380 644 1
380 645 1
380 646 1
380 647 1
380 648 1
380 649 1
380 650 1
380 651 1
381 652 1
381 653 1
381 654 1
381 655 1
381 656 1
381 657 1
381 658 1
381 659 1
381 660 1
381 661 1
382 662 1
382 663 1
382 664 1
382 665 1
382 666 1
382 667 1
382 668 1
382 669 1
382 670 1
382 671 1
382 672 1
383 673 1
383 674 1
383 675 1
383 676 1
383 677 1
383 678 1
383 679 1
383 680 1
383 681 1
383 682 1
383 683 1
384 684 1
384 685 1
384 686 1
384 687 1
384 688 1
384 689 1
384 690 1
384 691 1
384 692 1
384 693 1
384 694 1
385 695 1
385 696 1
385 697 1
385 698 1
385 699 1
385 700 1
385 701 1
385 702 1
385 703 1
385 704 1
385 705 1
385 706 1
385 707 1
391 708 1
391 709 1
391 710 1
391 711 1
391 712 1
391 713 1
391 714 1
391 715 1
391 716 1
391 717 1
391 718 1
394 719 1
394 720 1
394 721 1
398 722 1
398 723 1
398 724 1
398 725 1
398 726 1
398 727 1
398 728 1
398 729 1
398 730 1
398 731 1
398 732 1
398 733 1
398 734 1
398 735 1
400 736 1
400 737 1
400 738 1
400 739 1
400 740 1
400 741 1
400 742 1
400 743 1
400 744 1
400 745 1
400 746 1
401 747 1
401 748 1
401 749 1
401 750 1
401 751 1
401 752 1
401 753 1
401 754 1
401 755 1
401 756 1
401 757 1
401 758 1
408 759 1
408 760 1
408 761 1
408 762 1
408 763 1
408 764 1
408 765 1
408 766 1
408 767 1
408 768 1
408 769 1
408 770 1
433 771 1
433 772 1
433 773 1
433 774 1
433 775 1
433 776 1
433 777 1
433 778 1
433 779 1
433 780 1
433 781 1
433 782 1
442 783 1
442 784 1
442 785 1
442 786 1
442 787 1
442 788 1
442 789 1
442 790 1
442 791 1
442 792 1
442 793 1
442 794 1
467 795 1
467 796 1
467 797 1
467 798 1
467 799 1
467 800 1
467 801 1
467 802 1
467 803 1
467 804 1
467 805 1
467 806 1
467 807 1
472 808 1
472 809 1
472 810 1
472 811 1
472 812 1
472 813 1
472 814 1
472 815 1
472 816 1
472 817 1
472 818 1
482 819 1
482 820 1
482 821 1
482 822 1
482 823 1
482 824 1
482 825 1
482 826 1
482 827 1
482 828 1
482 829 1
482 830 1
487 831 1
487 832 1
487 833 1
487 834 1
487 835 1
487 836 1
487 837 1
487 838 1
487 839 1
487 840 1
487 841 1
487 842 1
492 843 1
492 844 1
492 845 1
492 846 1
492 847 1
492 848 1
492 849 1
492 850 1
492 851 1
492 852 1
492 853 1
495 854 1
495 855 1
495 856 1
495 857 1
495 858 1
495 859 1
495 860 1
495 861 1
495 862 1
495 863 1
495 864 1
499 865 1
499 866 1
499 867 1
499 868 1
499 869 1
499 870 1
499 871 1
499 872 1
499 873 1
499 874 1
499 875 1
499 876 1
499 877 1
501 878 1
501 879 1
501 880 1
501 881 1
501 882 1
501 883 1
501 884 1
501 885 1
501 886 1
501 887 1
501 888 1
501 889 1
501 890 1
501 891 1
501 892 1
503 893 1
503 894 1
503 895 1
503 896 1
503 897 1
503 898 1
503 899 1
503 900 1
503 901 1
503 902 1
503 903 1
503 904 1
505 905 1
505 906 1
505 907 1
505 908 1
505 909 1
505 910 1
505 911 1
505 912 1
505 913 1
505 914 1
505 915 1
505 916 1
505 917 1
505 918 1
508 919 1
508 920 1
508 921 1
508 922 1
508 923 1
508 924 1
508 925 1
508 926 1
508 927 1
508 928 1
508 929 1
508 930 1
508 931 1
555 932 1
555 933 1
555 934 1
555 935 1
555 936 1
555 937 1
555 938 1
555 939 1
555 940 1
555 941 1
555 942 1
599 943 1
599 944 1
599 945 1
599 946 1
599 947 1
599 948 1
599 949 1
599 950 1
599 951 1
599 952 1
599 953 1
599 954 1
611 955 1
611 956 1
611 957 1
611 958 1
611 959 1
611 960 1
611 961 1
611 962 1
611 963 1
611 964 1
611 965 1
611 966 1
611 967 1
614 968 1
614 969 1
614 970 1
614 971 1
614 972 1
614 973 1
614 974 1
614 975 1
614 976 1
614 977 1
614 978 1
614 979 1
614 980 1
650 981 1
650 982 1
650 983 1
650 984 1
650 985 1
650 986 1
650 987 1
650 988 1
650 989 1
650 990 1
650 991 1
699 992 1
699 993 1
699 994 1
699 995 1
699 996 1
699 997 1
699 998 1
699 999 1
699 1000 1
699 1001 1
2 1002 1
3 1003 1
4 1004 1
5 1005 1
6 1006 1
7 1007 1
8 1008 1
9 1009 1
10 1010 1
11 1011 1
12 1012 1
13 1013 1
14 1014 1
15 1015 1
16 1016 1
17 1017 1
18 1018 1
19 1019 1
20 1020 1
21 1021 1
22 1022 1
23 1023 1
24 1024 1
25 1025 1
26 1026 1
27 1027 1
28 1028 1
29 1029 1
30 1030 1
31 1031 1
32 1032 1
33 1033 1
34 1034 1
35 1035 1
36 1036 1
37 1037 1
38 1038 1
39 1039 1
40 1040 1
41 1041 1
42 1042 1
43 1043 1
44 1044 1
45 1045 1
46 1046 1
47 1047 1
48 1048 1
49 1049 1
50 1050 1
51 1051 1
52 1052 1
53 1053 1
54 1054 1
55 1055 1
56 1056 1
57 1057 1
58 1058 1
59 1059 1
60 1060 1
61 1061 1
62 1062 1
63 1063 1
64 1064 1
65 1065 1
66 1066 1
67 1067 1
68 1068 1
69 1069 1
70 1070 1
71 1071 1
72 1072 1
73 1073 1
74 1074 1
75 1075 1
76 1076 1
77 1077 1
78 1078 1
79 1079 1
80 1080 1
81 1081 1
82 1082 1
83 1083 1
84 1084 1
85 1085 1
86 1086 1
87 1087 1
88 1088 1
89 1089 1
90 1090 1
91 1091 1
92 1092 1
93 1093 1
94 1094 1
95 1095 1
96 1096 1
97 1097 1
98 1098 1
99 1099 1
100 1100 1
101 1101 1
102 1102 1
103 1103 1
104 1104 1
105 1105 1
106 1106 1
107 1107 1
108 1108 1
109 1109 1
110 1110 1
111 1111 1
112 1112 1
113 1113 1
114 1114 1
115 1115 1
116 1116 1
117 1117 1
118 1118 1
119 1119 1
120 1120 1
121 1121 1
122 1122 1
123 1123 1
124 1124 1
125 1125 1
126 1126 1
127 1127 1
128 1128 1
129 1129 1
130 1130 1
131 1131 1
132 1132 1
133 1133 1
134 1134 1
135 1135 1
136 1136 1
137 1137 1
138 1138 1
139 1139 1
140 1140 1
141 1141 1
142 1142 1
143 1143 1
144 1144 1
145 1145 1
146 1146 1
147 1147 1
148 1148 1
149 1149 1
150 1150 1
151 1151 1
152 1152 1
153 1153 1
154 1154 1
155 1155 1
156 1156 1
157 1157 1
158 1158 1
159 1159 1
160 1160 1
161 1161 1
162 1162 1
163 1163 1
164 1164 1
165 1165 1
166 1166 1
167 1167 1
168 1168 1
169 1169 1
170 1170 1
171 1171 1
172 1172 1
173 1173 1
174 1174 1
175 1175 1
176 1176 1
177 1177 1
178 1178 1
179 1179 1
180 1180 1
181 1181 1
182 1182 1
183 1183 1
184 1184 1
185 1185 1
186 1186 1
187 1187 1
188 1188 1
189 1189 1
190 1190 1
191 1191 1
192 1192 1
193 1193 1
194 1194 1
195 1195 1
196 1196 1
197 1197 1
198 1198 1
199 1199 1
200 1200 1
201 1201 1
202 1202 1
203 1203 1
204 1204 1
205 1205 1
206 1206 1
207 1207 1
208 1208 1
209 1209 1
210 1210 1
211 1211 1
212 1212 1
213 1213 1
214 1214 1
215 1215 1
216 1216 1
217 1217 1
218 1218 1
219 1219 1
220 1220 1
221 1221 1
222 1222 1
223 1223 1
224 1224 1
225 1225 1
226 1226 1
227 1227 1
228 1228 1
229 1229 1
230 1230 1
231 1231 1
232 1232 1
233 1233 1
234 1234 1
235 1235 1
236 1236 1
237 1237 1
238 1238 1
239 1239 1
240 1240 1
241 1241 1
242 1242 1
243 1243 1
244 1244 1
245 1245 1
246 1246 1
247 1247 1
248 1248 1
249 1249 1
250 1250 1
251 1251 1
252 1252 1
253 1253 1
254 1254 1
255 1255 1
256 1256 1
257 1257 1
258 1258 1
259 1259 1
260 1260 1
261 1261 1
262 1262 1
263 1263 1
264 1264 1
265 1265 1
266 1266 1
267 1267 1
268 1268 1
269 1269 1
270 1270 1
271 1271 1
272 1272 1
273 1273 1
274 1274 1
275 1275 1
276 1276 1
277 1277 1
278 1278 1
279 1279 1
280 1280 1
281 1281 1
282 1282 1
283 1283 1
284 1284 1
285 1285 1
286 1286 1
287 1287 1
288 1288 1
289 1289 1
290 1290 1
291 1291 1
292 1292 1
293 1293 1
294 1294 1
295 1295 1
296 1296 1
297 1297 1
298 1298 1
299 1299 1
300 1300 1
301 1301 1
302 1302 1
303 1303 1
304 1304 1
305 1305 1
306 1306 1
307 1307 1
308 1308 1
309 1309 1
310 1310 1
311 1311 1
312 1312 1
313 1313 1
314 1314 1
315 1315 1
316 1316 1
317 1317 1
318 1318 1
319 1319 1
320 1320 1
321 1321 1
322 1322 1
323 1323 1
324 1324 1
325 1325 1
326 1326 1
327 1327 1
328 1328 1
329 1329 1
330 1330 1
331 1331 1
332 1332 1
333 1333 1
334 1334 1
335 1335 1
336 1336 1
337 1337 1
338 1338 1
339 1339 1
340 1340 1
341 1341 1
342 1342 1
343 1343 1
344 1344 1
345 1345 1
346 1346 1
347 1347 1
348 1348 1
349 1349 1
350 1350 1
351 1351 1
352 1352 1
353 1353 1
354 1354 1
355 1355 1
356 1356 1
357 1357 1
358 1358 1
359 1359 1
360 1360 1
361 1361 1
362 1362 1
363 1363 1
364 1364 1
365 1365 1
366 1366 1
367 1367 1
368 1368 1
369 1369 1
370 1370 1
371 1371 1
372 1372 1
373 1373 1
374 1374 1
375 1375 1
376 1376 1
377 1377 1
378 1378 1
379 1379 1
380 1380 1
381 1381 1
382 1382 1
383 1383 1
384 1384 1
385 1385 1
386 1386 1
387 1387 1
388 1388 1
389 1389 1
390 1390 1
391 1391 1
392 1392 1
393 1393 1
394 1394 1
395 1395 1
396 1396 1
397 1397 1
398 1398 1
399 1399 1
400 1400 1
401 1401 1
402 1402 1
403 1403 1
404 1404 1
405 1405 1
406 1406 1
407 1407 1
408 1408 1
409 1409 1
410 1410 1
411 1411 1
412 1412 1
413 1413 1
414 1414 1
415 1415 1
416 1416 1
417 1417 1
418 1418 1
419 1419 1
420 1420 1
421 1421 1
422 1422 1
423 1423 1
424 1424 1
425 1425 1
426 1426 1
427 1427 1
428 1428 1
429 1429 1
430 1430 1
431 1431 1
432 1432 1
433 1433 1
434 1434 1
435 1435 1
436 1436 1
437 1437 1
438 1438 1
439 1439 1
440 1440 1
441 1441 1
442 1442 1
443 1443 1
444 1444 1
445 1445 1
446 1446 1
447 1447 1
448 1448 1
449 1449 1
450 1450 1
451 1451 1
452 1452 1
453 1453 1
454 1454 1
455 1455 1
456 1456 1
457 1457 1
458 1458 1
459 1459 1
460 1460 1
461 1461 1
462 1462 1
463 1463 1
464 1464 1
465 1465 1
466 1466 1
467 1467 1
468 1468 1
469 1469 1
470 1470 1
471 1471 1
472 1472 1
473 1473 1
474 1474 1
475 1475 1
476 1476 1
477 1477 1
478 1478 1
479 1479 1
480 1480 1
481 1481 1
482 1482 1
483 1483 1
484 1484 1
485 1485 1
486 1486 1
487 1487 1
488 1488 1
489 1489 1
490 1490 1
491 1491 1
492 1492 1
493 1493 1
494 1494 1
495 1495 1
496 1496 1
497 1497 1
498 1498 1
499 1499 1
500 1500 1
501 1501 1
502 1502 1
503 1503 1
504 1504 1
505 1505 1
506 1506 1
507 1507 1
508 1508 1
509 1509 1
510 1510 1
511 1511 1
512 1512 1
513 1513 1
514 1514 1
515 1515 1
516 1516 1
517 1517 1
518 1518 1
519 1519 1
520 1520 1
521 1521 1
522 1522 1
523 1523 1
524 1524 1
525 1525 1
526 1526 1
527 1527 1
528 1528 1
529 1529 1
530 1530 1
531 1531 1
532 1532 1
533 1533 1
534 1534 1
535 1535 1
536 1536 1
537 1537 1
538 1538 1
539 1539 1
540 1540 1
541 1541 1
542 1542 1
543 1543 1
544 1544 1
545 1545 1
546 1546 1
547 1547 1
548 1548 1
549 1549 1
550 1550 1
551 1551 1
552 1552 1
553 1553 1
554 1554 1
555 1555 1
556 1556 1
557 1557 1
558 1558 1
559 1559 1
560 1560 1
561 1561 1
562 1562 1
563 1563 1
564 1564 1
565 1565 1
566 1566 1
567 1567 1
568 1568 1
569 1569 1
570 1570 1
571 1571 1
572 1572 1
573 1573 1
574 1574 1
575 1575 1
576 1576 1
577 1577 1
578 1578 1
579 1579 1
580 1580 1
581 1581 1
582 1582 1
583 1583 1
584 1584 1
585 1585 1
586 1586 1
587 1587 1
588 1588 1
589 1589 1
590 1590 1
591 1591 1
592 1592 1
593 1593 1
594 1594 1
595 1595 1
596 1596 1
597 1597 1
598 1598 1
599 1599 1
600 1600 1
601 1601 1
602 1602 1
603 1603 1
604 1604 1
605 1605 1
606 1606 1
607 1607 1
608 1608 1
609 1609 1
610 1610 1
611 1611 1
612 1612 1
613 1613 1
614 1614 1
615 1615 1
616 1616 1
617 1617 1
618 1618 1
619 1619 1
620 1620 1
621 1621 1
622 1622 1
623 1623 1
624 1624 1
625 1625 1
626 1626 1
627 1627 1
628 1628 1
629 1629 1
630 1630 1
631 1631 1
632 1632 1
633 1633 1
634 1634 1
635 1635 1
636 1636 1
637 1637 1
638 1638 1
639 1639 1
640 1640 1
641 1641 1
642 1642 1
643 1643 1
644 1644 1
645 1645 1
646 1646 1
647 1647 1
648 1648 1
649 1649 1
650 1650 1
651 1651 1
652 1652 1
653 1653 1
654 1654 1
655 1655 1
656 1656 1
657 1657 1
658 1658 1
659 1659 1
660 1660 1
661 1661 1
662 1662 1
663 1663 1
664 1664 1
665 1665 1
666 1666 1
667 1667 1
668 1668 1
669 1669 1
670 1670 1
671 1671 1
672 1672 1
673 1673 1
674 1674 1
675 1675 1
676 1676 1
677 1677 1
678 1678 1
679 1679 1
680 1680 1
681 1681 1
682 1682 1
683 1683 1
684 1684 1
685 1685 1
686 1686 1
687 1687 1
688 1688 1
689 1689 1
690 1690 1
691 1691 1
692 1692 1
693 1693 1
694 1694 1
695 1695 1
696 1696 1
697 1697 1
698 1698 1
699 1699 1
700 1700 1
701 1701 1
702 1702 1
703 1703 1
704 1704 1
705 1705 1
706 1706 1
707 1707 1
708 1708 1
709 1709 1
710 1710 1
711 1711 1
712 1712 1
713 1713 1
714 1714 1
715 1715 1
716 1716 1
717 1717 1
718 1718 1
719 1719 1
720 1720 1
721 1721 1
722 1722 1
723 1723 1
724 1724 1
725 1725 1
726 1726 1
727 1727 1
728 1728 1
729 1729 1
730 1730 1
731 1731 1
732 1732 1
733 1733 1
734 1734 1
735 1735 1
736 1736 1
737 1737 1
738 1738 1
739 1739 1
740 1740 1
741 1741 1
742 1742 1
743 1743 1
744 1744 1
745 1745 1
746 1746 1
747 1747 1
748 1748 1
749 1749 1
750 1750 1
751 1751 1
752 1752 1
753 1753 1
754 1754 1
755 1755 1
756 1756 1
757 1757 1
758 1758 1
759 1759 1
760 1760 1
761 1761 1
762 1762 1
763 1763 1
764 1764 1
765 1765 1
766 1766 1
767 1767 1
768 1768 1
769 1769 1
770 1770 1
771 1771 1
772 1772 1
773 1773 1
774 1774 1
775 1775 1
776 1776 1
777 1777 1
778 1778 1
779 1779 1
780 1780 1
781 1781 1
782 1782 1
783 1783 1
784 1784 1
785 1785 1
786 1786 1
787 1787 1
788 1788 1
789 1789 1
790 1790 1
791 1791 1
792 1792 1
793 1793 1
794 1794 1
795 1795 1
796 1796 1
797 1797 1
798 1798 1
799 1799 1
800 1800 1
801 1801 1
802 1802 1
803 1803 1
804 1804 1
805 1805 1
806 1806 1
807 1807 1
808 1808 1
809 1809 1
810 1810 1
811 1811 1
812 1812 1
813 1813 1
814 1814 1
815 1815 1
816 1816 1
817 1817 1
818 1818 1
819 1819 1
820 1820 1
821 1821 1
822 1822 1
823 1823 1
824 1824 1
825 1825 1
826 1826 1
827 1827 1
828 1828 1
829 1829 1
830 1830 1
831 1831 1
832 1832 1
833 1833 1
834 1834 1
835 1835 1
836 1836 1
837 1837 1
838 1838 1
839 1839 1
840 1840 1
841 1841 1
842 1842 1
843 1843 1
844 1844 1
845 1845 1
846 1846 1
847 1847 1
848 1848 1
849 1849 1
850 1850 1
851 1851 1
852 1852 1
853 1853 1
854 1854 1
855 1855 1
856 1856 1
857 1857 1
858 1858 1
859 1859 1
860 1860 1
861 1861 1
862 1862 1
863 1863 1
864 1864 1
865 1865 1
866 1866 1
867 1867 1
868 1868 1
869 1869 1
870 1870 1
871 1871 1
872 1872 1
873 1873 1
874 1874 1
875 1875 1
876 1876 1
877 1877 1
878 1878 1
879 1879 1
880 1880 1
881 1881 1
882 1882 1
883 1883 1
884 1884 1
885 1885 1
886 1886 1
887 1887 1
888 1888 1
889 1889 1
890 1890 1
891 1891 1
892 1892 1
893 1893 1
894 1894 1
895 1895 1
896 1896 1
897 1897 1
898 1898 1
899 1899 1
900 1900 1
901 1901 1
902 1902 1
903 1903 1
904 1904 1
905 1905 1
906 1906 1
907 1907 1
908 1908 1
909 1909 1
910 1910 1
911 1911 1
912 1912 1
913 1913 1
914 1914 1
915 1915 1
916 1916 1
917 1917 1
918 1918 1
919 1919 1
920 1920 1
921 1921 1
922 1922 1
923 1923 1
924 1924 1
925 1925 1
926 1926 1
927 1927 1
928 1928 1
929 1929 1
930 1930 1
931 1931 1
932 1932 1
933 1933 1
934 1934 1
935 1935 1
936 1936 1
937 1937 1
938 1938 1
939 1939 1
940 1940 1
941 1941 1
942 1942 1
943 1943 1
944 1944 1
945 1945 1
946 1946 1
947 1947 1
948 1948 1
949 1949 1
950 1950 1
951 1951 1
952 1952 1
953 1953 1
954 1954 1
955 1955 1
956 1956 1
957 1957 1
958 1958 1
959 1959 1
960 1960 1
961 1961 1
962 1962 1
963 1963 1
964 1964 1
965 1965 1
966 1966 1
967 1967 1
968 1968 1
969 1969 1
970 1970 1
971 1971 1
972 1972 1
973 1973 1
974 1974 1
975 1975 1
976 1976 1
977 1977 1
978 1978 1
979 1979 1
980 1980 1
981 1981 1
982 1982 1
983 1983 1
984 1984 1
985 1985 1
986 1986 1
987 1987 1

