1 2 1
1 3 1
1 4 1
1 5 1
1 6 1
1 7 1
1 8 1
1 9 1
1 10 1
2 11 1
2 12 1
2 13 1
2 14 1
2 15 1
2 16 1
2 17 1
2 18 1
2 19 1
2 20 1
3 21 1
3 22 1
3 23 1
3 24 1
3 25 1
3 26 1
3 27 1
3 28 1
3 29 1
3 30 1
4 31 1
4 32 1
4 33 1
4 34 1
4 35 1
4 36 1
4 37 1
4 38 1
4 39 1
4 40 1
5 41 1
5 42 1
5 43 1
5 44 1
5 45 1
5 46 1
5 47 1
5 48 1
5 49 1
5 50 1
6 51 1
6 52 1
6 53 1
6 54 1
6 55 1
6 56 1
6 57 1
6 58 1
6 59 1
6 60 1
7 61 1
7 62 1
7 63 1
7 64 1
7 65 1
7 66 1
7 67 1
7 68 1
7 69 1
7 70 1
8 71 1
8 72 1
8 73 1
8 74 1
8 75 1
8 76 1
8 77 1
8 78 1
8 79 1
8 80 1
9 81 1
9 82 1
9 83 1
9 84 1
9 85 1
9 86 1
9 87 1
9 88 1
9 89 1
9 90 1
10 91 1
10 92 1
10 93 1
10 94 1
10 95 1
10 96 1
10 97 1
10 98 1
10 99 1
10 100 1
11 101 1
11 102 1
11 103 1
11 104 1
11 105 1
11 106 1
11 107 1
11 108 1
11 109 1
11 110 1
12 111 1
12 112 1
12 113 1
12 114 1
12 115 1
12 116 1
12 117 1
12 118 1
12 119 1
12 120 1
13 121 1
13 122 1
13 123 1
13 124 1
13 125 1
13 126 1
13 127 1
13 128 1
13 129 1
13 130 1
14 131 1
14 132 1
14 133 1
14 134 1
14 135 1
14 136 1
14 137 1
14 138 1
14 139 1
14 140 1
15 141 1
15 142 1
15 143 1
15 144 1
15 145 1
15 146 1
15 147 1
15 148 1
15 149 1
15 150 1
16 151 1
16 152 1
16 153 1
16 154 1
16 155 1
16 156 1
16 157 1
16 158 1
16 159 1
16 160 1
17 161 1
17 162 1
17 163 1
17 164 1
17 165 1
17 166 1
17 167 1
17 168 1
17 169 1
17 170 1
18 171 1
18 172 1
18 173 1
18 174 1
18 175 1
18 176 1
18 177 1
18 178 1
18 179 1
18 180 1
19 181 1
19 182 1
19 183 1
19 184 1
19 185 1
19 186 1
19 187 1
19 188 1
19 189 1
19 190 1
20 191 1
20 192 1
20 193 1
20 194 1
20 195 1
20 196 1
20 197 1
20 198 1
20 199 1
20 200 1
21 201 1
21 202 1
21 203 1
21 204 1
21 205 1
21 206 1
21 207 1
21 208 1
21 209 1
21 210 1
22 211 1
22 212 1
22 213 1
22 214 1
22 215 1
22 216 1
22 217 1
22 218 1
22 219 1
22 220 1
23 221 1
23 222 1
23 223 1
23 224 1
23 225 1
23 226 1
23 227 1
23 228 1
23 229 1
23 230 1
24 231 1
24 232 1
24 233 1
24 234 1
24 235 1
24 236 1
24 237 1
24 238 1
24 239 1
24 240 1
25 241 1
25 242 1
25 243 1
25 244 1
25 245 1
25 246 1
25 247 1
25 248 1
25 249 1
25 250 1
26 251 1
26 252 1
26 253 1
26 254 1
26 255 1
26 256 1
26 257 1
26 258 1
26 259 1
26 260 1
27 261 1
27 262 1
27 263 1
27 264 1
27 265 1
27 266 1
27 267 1
27 268 1
27 269 1
27 270 1
28 271 1
28 272 1
28 273 1
28 274 1
28 275 1
28 276 1
28 277 1
28 278 1
28 279 1
28 280 1
29 281 1
29 282 1
29 283 1
29 284 1
29 285 1
29 286 1
29 287 1
29 288 1
29 289 1
29 290 1
30 291 1
30 292 1
30 293 1
30 294 1
30 295 1
30 296 1
30 297 1
30 298 1
30 299 1
30 300 1
31 301 1
31 302 1
31 303 1
31 304 1
31 305 1
31 306 1
31 307 1
31 308 1
31 309 1
31 310 1
32 311 1
32 312 1
32 313 1
32 314 1
32 315 1
32 316 1
32 317 1
32 318 1
32 319 1
32 320 1
33 321 1
33 322 1
33 323 1
33 324 1
33 325 1
33 326 1
33 327 1
33 328 1
33 329 1
33 330 1
34 331 1
34 332 1
34 333 1
34 334 1
34 335 1
34 336 1
34 337 1
34 338 1
34 339 1
34 340 1
35 341 1
35 342 1
35 343 1
35 344 1
35 345 1
35 346 1
35 347 1
35 348 1
35 349 1
35 350 1
36 351 1
36 352 1
36 353 1
36 354 1
36 355 1
36 356 1
36 357 1
36 358 1
36 359 1
36 360 1
37 361 1
37 362 1
37 363 1
37 364 1
37 365 1
37 366 1
37 367 1
37 368 1
37 369 1
37 370 1
38 371 1
38 372 1
38 373 1
38 374 1
38 375 1
38 376 1
38 377 1
38 378 1
38 379 1
38 380 1
39 381 1
39 382 1
39 383 1
39 384 1
39 385 1
39 386 1
39 387 1
39 388 1
39 389 1
39 390 1
40 391 1
40 392 1
40 393 1
40 394 1
40 395 1
40 396 1
40 397 1
40 398 1
40 399 1
40 400 1
41 401 1
41 402 1
41 403 1
41 404 1
41 405 1
41 406 1
41 407 1
41 408 1
41 409 1
41 410 1
42 411 1
42 412 1
42 413 1
42 414 1
42 415 1
42 416 1
42 417 1
42 418 1
42 419 1
42 420 1
43 421 1
43 422 1
43 423 1
43 424 1
43 425 1
43 426 1
43 427 1
43 428 1
43 429 1
43 430 1
44 431 1
44 432 1
44 433 1
44 434 1
44 435 1
44 436 1
44 437 1
44 438 1
44 439 1
44 440 1
45 441 1
45 442 1
45 443 1
45 444 1
45 445 1
45 446 1
45 447 1
45 448 1
45 449 1
45 450 1
46 451 1
46 452 1
46 453 1
46 454 1
46 455 1
46 456 1
46 457 1
46 458 1
46 459 1
46 460 1
47 461 1
47 462 1
47 463 1
47 464 1
47 465 1
47 466 1
47 467 1
47 468 1
47 469 1
47 470 1
48 471 1
48 472 1
48 473 1
48 474 1
48 475 1
48 476 1
48 477 1
48 478 1
48 479 1
48 480 1
49 481 1
49 482 1
49 483 1
49 484 1
49 485 1
49 486 1
49 487 1
49 488 1
49 489 1
49 490 1
50 491 1
50 492 1
50 493 1
50 494 1
50 495 1
50 496 1
50 497 1
50 498 1
50 499 1
50 500 1
51 501 1
51 502 1
51 503 1
51 504 1
51 505 1
51 506 1
51 507 1
51 508 1
51 509 1
51 510 1
52 511 1
52 512 1
52 513 1
52 514 1
52 515 1
52 516 1
52 517 1
52 518 1
52 519 1
52 520 1
53 521 1
53 522 1
53 523 1
53 524 1
53 525 1
53 526 1
53 527 1
53 528 1
53 529 1
53 530 1
54 531 1
54 532 1
54 533 1
54 534 1
54 535 1
54 536 1
54 537 1
54 538 1
54 539 1
54 540 1
55 541 1
55 542 1
55 543 1
55 544 1
55 545 1
55 546 1
55 547 1
55 548 1
55 549 1
55 550 1
56 551 1
56 552 1
56 553 1
56 554 1
56 555 1
56 556 1
56 557 1
56 558 1
56 559 1
56 560 1
57 561 1
57 562 1
57 563 1
57 564 1
57 565 1
57 566 1
57 567 1
57 568 1
57 569 1
57 570 1
58 571 1
58 572 1
58 573 1
58 574 1
58 575 1
58 576 1
58 577 1
58 578 1
58 579 1
58 580 1
59 581 1
59 582 1
59 583 1
59 584 1
59 585 1
59 586 1
59 587 1
59 588 1
59 589 1
59 590 1
60 591 1
60 592 1
60 593 1
60 594 1
60 595 1
60 596 1
60 597 1
60 598 1
60 599 1
60 600 1
61 601 1
61 602 1
61 603 1
61 604 1
61 605 1
61 606 1
61 607 1
61 608 1
61 609 1
61 610 1
62 611 1
62 612 1
62 613 1
62 614 1
62 615 1
62 616 1
62 617 1
62 618 1
62 619 1
62 620 1
63 621 1
63 622 1
63 623 1
63 624 1
63 625 1
63 626 1
63 627 1
63 628 1
63 629 1
63 630 1
64 631 1
64 632 1
64 633 1
64 634 1
64 635 1
64 636 1
64 637 1
64 638 1
64 639 1
64 640 1
65 641 1
65 642 1
65 643 1
65 644 1
65 645 1
65 646 1
65 647 1
65 648 1
65 649 1
65 650 1
66 651 1
66 652 1
66 653 1
66 654 1
66 655 1
66 656 1
66 657 1
66 658 1
66 659 1
66 660 1
67 661 1
67 662 1
67 663 1
67 664 1
67 665 1
67 666 1
67 667 1
67 668 1
67 669 1
67 670 1
68 671 1
68 672 1
68 673 1
68 674 1
68 675 1
68 676 1
68 677 1
68 678 1
68 679 1
68 680 1
69 681 1
69 682 1
69 683 1
69 684 1
69 685 1
69 686 1
69 687 1
69 688 1
69 689 1
69 690 1
70 691 1
70 692 1
70 693 1
70 694 1
70 695 1
70 696 1
70 697 1
70 698 1
70 699 1
70 700 1
71 701 1
71 702 1
71 703 1
71 704 1
71 705 1
71 706 1
71 707 1
71 708 1
71 709 1
71 710 1
72 711 1
72 712 1
72 713 1
72 714 1
72 715 1
72 716 1
72 717 1
72 718 1
72 719 1
72 720 1
73 721 1
73 722 1
73 723 1
73 724 1
73 725 1
73 726 1
73 727 1
73 728 1
73 729 1
73 730 1
74 731 1
74 732 1
74 733 1
74 734 1
74 735 1
74 736 1
74 737 1
74 738 1
74 739 1
74 740 1
75 741 1
75 742 1
75 743 1
75 744 1
75 745 1
75 746 1
75 747 1
75 748 1
75 749 1
75 750 1
76 751 1
76 752 1
76 753 1
76 754 1
76 755 1
76 756 1
76 757 1
76 758 1
76 759 1
76 760 1
77 761 1
77 762 1
77 763 1
77 764 1
77 765 1
77 766 1
77 767 1
77 768 1
77 769 1
77 770 1
78 771 1
78 772 1
78 773 1
78 774 1
78 775 1
78 776 1
78 777 1
78 778 1
78 779 1
78 780 1
79 781 1
79 782 1
79 783 1
79 784 1
79 785 1
79 786 1
79 787 1
79 788 1
79 789 1
79 790 1
80 791 1
80 792 1
80 793 1
80 794 1
80 795 1
80 796 1
80 797 1
80 798 1
80 799 1
80 800 1
81 801 1
81 802 1
81 803 1
81 804 1
81 805 1
81 806 1
81 807 1
81 808 1
81 809 1
81 810 1
82 811 1
82 812 1
82 813 1
82 814 1
82 815 1
82 816 1
82 817 1
82 818 1
82 819 1
82 820 1
83 821 1
83 822 1
83 823 1
83 824 1
83 825 1
83 826 1
83 827 1
83 828 1
83 829 1
83 830 1
84 831 1
84 832 1
84 833 1
84 834 1
84 835 1
84 836 1
84 837 1
84 838 1
84 839 1
84 840 1
85 841 1
85 842 1
85 843 1
85 844 1
85 845 1
85 846 1
85 847 1
85 848 1
85 849 1
85 850 1
86 851 1
86 852 1
86 853 1
86 854 1
86 855 1
86 856 1
86 857 1
86 858 1
86 859 1
86 860 1
87 861 1
87 862 1
87 863 1
87 864 1
87 865 1
87 866 1
87 867 1
87 868 1
87 869 1
87 870 1
88 871 1
88 872 1
88 873 1
88 874 1
88 875 1
88 876 1
88 877 1
88 878 1
88 879 1
88 880 1
89 881 1
89 882 1
89 883 1
89 884 1
89 885 1
89 886 1
89 887 1
89 888 1
89 889 1
89 890 1
90 891 1
90 892 1
90 893 1
90 894 1
90 895 1
90 896 1
90 897 1
90 898 1
90 899 1
90 900 1
91 901 1
91 902 1
91 903 1
91 904 1
91 905 1
91 906 1
91 907 1
91 908 1
91 909 1
91 910 1
92 911 1
92 912 1
92 913 1
92 914 1
92 915 1
92 916 1
92 917 1
92 918 1
92 919 1
92 920 1
93 921 1
93 922 1
93 923 1
93 924 1
93 925 1
93 926 1
93 927 1
93 928 1
93 929 1
93 930 1
94 931 1
94 932 1
94 933 1
94 934 1
94 935 1
94 936 1
94 937 1
94 938 1
94 939 1
94 940 1
95 941 1
95 942 1
95 943 1
95 944 1
95 945 1
95 946 1
95 947 1
95 948 1
95 949 1
95 950 1
96 951 1
96 952 1
96 953 1
96 954 1
96 955 1
96 956 1
96 957 1
96 958 1
96 959 1
96 960 1
97 961 1
97 962 1
97 963 1
97 964 1
97 965 1
97 966 1
97 967 1
97 968 1
97 969 1
97 970 1
98 971 1
98 972 1
98 973 1
98 974 1
98 975 1
98 976 1
98 977 1
98 978 1
98 979 1
98 980 1
99 981 1
99 982 1
99 983 1
99 984 1
99 985 1
99 986 1
99 987 1
99 988 1
99 989 1
99 990 1
100 991 1
100 992 1
100 993 1
100 994 1
100 995 1
100 996 1
100 997 1
100 998 1
100 999 1
100 1000 1
101 1001 1
