1 2 1
1 3 0.073306
1 4 0.073306
1 5 0.073306
1 6 0.073306
1 7 0.073306
1 8 0.073306
1 9 0.073306
1 10 0.073306
1 11 0.073306
2 12 0.073306
2 13 0.073306
2 14 0.073306
2 15 0.073306
2 16 0.073306
2 17 0.073306
2 18 0.073306
2 19 0.073306
2 20 0.073306
2 21 0.073306
3 22 0.073306
3 23 0.073306
3 24 0.073306
3 25 0.073306
3 26 0.073306
3 27 0.073306
3 28 0.073306
3 29 0.073306
3 30 0.073306
3 31 0.073306
4 32 0.073306
4 33 0.073306
4 34 0.073306
4 35 0.073306
4 36 0.073306
4 37 0.073306
4 38 0.073306
4 39 0.073306
4 40 0.073306
4 41 0.073306
5 42 0.073306
5 43 0.073306
5 44 0.073306
5 45 0.073306
5 46 0.073306
5 47 0.073306
5 48 0.073306
5 49 0.073306
5 50 0.073306
5 51 0.073306
5 52 0.073306
5 53 0.073306
6 54 0.073306
6 55 0.073306
6 56 0.073306
6 57 0.073306
6 58 0.073306
6 59 0.073306
6 60 0.073306
6 61 0.073306
11 62 0.073306
11 63 0.073306
11 64 0.073306
11 65 0.073306
11 66 0.073306
22 67 0.073306
22 68 0.073306
22 69 0.073306
22 70 0.073306
22 71 0.073306
32 72 0.073306
32 73 0.073306
32 74 0.073306
32 75 0.073306
32 76 0.073306
32 77 0.073306
32 78 0.073306
32 79 0.073306
32 80 0.073306
45 81 0.053403
45 82 0.053403
45 83 0.053403
45 84 0.053403
45 85 0.053403
45 86 0.053403
45 87 0.053403
45 88 0.053403
45 89 0.053403
45 90 0.053403
45 91 0.053403
56 92 0.053403
56 93 0.053403
56 94 0.053403
56 95 0.053403
56 96 0.053403
56 97 0.053403
56 98 0.053403
56 99 0.053403
56 100 0.053403
63 101 0.053403
63 102 0.053403
63 103 0.053403
63 104 0.053403
63 105 0.053403
63 106 0.053403
63 107 0.053403
63 108 0.053403
63 109 0.053403
63 110 0.053403
63 111 0.053403
67 112 0.053403
67 113 0.053403
67 114 0.053403
67 115 0.053403
67 116 0.053403
67 117 0.053403
67 118 0.053403
67 119 0.053403
64 120 0.053403
64 121 0.053403
64 122 0.053403
64 123 0.053403
64 124 0.053403
64 125 0.053403
64 126 0.053403
77 127 0.053403
77 128 0.053403
77 129 0.053403
77 130 0.053403
77 131 0.053403
122 132 0.022433
122 133 0.022433
122 134 0.022433
122 135 0.022433
122 136 0.022433
122 137 0.022433
122 138 0.022433
122 139 0.022433
122 140 0.022433
122 141 0.022433
122 142 0.022433
122 143 0.022433
134 144 0.022433
134 145 0.022433
134 146 0.022433
134 147 0.022433
134 148 0.022433
134 149 0.022433
134 150 0.022433
134 151 0.022433
134 152 0.022433
134 153 0.022433
134 154 0.022433
134 155 0.022433
155 156 0.022433
155 157 0.022433
155 158 0.022433
155 159 0.022433
155 160 0.022433
155 161 0.022433
155 162 0.022433
155 163 0.022433
155 164 0.022433
155 165 0.022433
155 166 0.022433
155 167 0.022433
155 168 0.022433
158 169 0.022433
158 170 0.022433
158 171 0.022433
158 172 0.022433
158 173 0.022433
158 174 0.022433
158 175 0.022433
158 176 0.022433
158 177 0.022433
158 178 0.022433
158 179 0.022433
161 180 0.022433
161 181 0.022433
161 182 0.022433
161 183 0.022433
161 184 0.022433
161 185 0.022433
161 186 0.022433
161 187 0.022433
161 188 0.022433
161 189 0.022433
161 190 0.022433
161 191 0.022433
163 192 0.022433
163 193 0.022433
163 194 0.022433
163 195 0.022433
163 196 0.022433
163 197 0.022433
163 198 0.022433
163 199 0.022433
163 200 0.022433
163 201 0.022433
174 202 0.022433
174 203 0.022433
174 204 0.022433
174 205 0.022433
174 206 0.022433
174 207 0.022433
174 208 0.022433
174 209 0.022433
174 210 0.022433
174 211 0.022433
174 212 0.022433
174 213 0.022433
174 214 0.022433
174 215 0.022433
174 216 0.022433
176 217 0.022433
176 218 0.022433
176 219 0.022433
176 220 0.022433
176 221 0.022433
176 222 0.022433
176 223 0.022433
176 224 0.022433
176 225 0.022433
176 226 0.022433
176 227 0.022433
176 228 0.022433
177 229 0.022433
177 230 0.022433
177 231 0.022433
177 232 0.022433
177 233 0.022433
177 234 0.022433
177 235 0.022433
177 236 0.022433
177 237 0.022433
177 238 0.022433
177 239 0.022433
181 240 0.022433
181 241 0.022433
181 242 0.022433
181 243 0.022433
181 244 0.022433
181 245 0.022433
181 246 0.022433
181 247 0.022433
181 248 0.022433
181 249 0.022433
181 250 0.022433
181 251 0.022433
183 252 0.022433
183 253 0.022433
183 254 0.022433
183 255 0.022433
183 256 0.022433
183 257 0.022433
183 258 0.022433
183 259 0.022433
183 260 0.022433
183 261 0.022433
222 262 0.022433
222 263 0.022433
222 264 0.022433
222 265 0.022433
222 266 0.022433
222 267 0.022433
222 268 0.022433
222 269 0.022433
222 270 0.022433
222 271 0.022433
233 272 0.008233
233 273 0.008233
233 274 0.008233
233 275 0.008233
233 276 0.008233
233 277 0.008233
233 278 0.008233
233 279 0.008233
233 280 0.008233
233 281 0.008233
234 282 0.008233
234 283 0.008233
234 284 0.008233
234 285 0.008233
234 286 0.008233
234 287 0.008233
234 288 0.008233
234 289 0.008233
234 290 0.008233
234 291 0.008233
235 292 0.008233
235 293 0.008233
235 294 0.008233
235 295 0.008233
235 296 0.008233
235 297 0.008233
235 298 0.008233
235 299 0.008233
235 300 0.008233
235 301 0.008233
235 302 0.008233
235 303 0.008233
246 304 0.008233
246 305 0.008233
246 306 0.008233
246 307 0.008233
246 308 0.008233
246 309 0.008233
246 310 0.008233
246 311 0.008233
246 312 0.008233
246 313 0.008233
246 314 0.008233
246 315 0.008233
246 316 0.008233
249 317 0.005223
249 318 0.005223
249 319 0.005223
249 320 0.005223
249 321 0.005223
266 322 0.005223
266 323 0.005223
266 324 0.005223
266 325 0.005223
266 326 0.005223
266 327 0.005223
266 328 0.005223
266 329 0.005223
266 330 0.005223
287 331 0.005223
287 332 0.005223
287 333 0.005223
287 334 0.005223
287 335 0.005223
287 336 0.005223
287 337 0.005223
287 338 0.005223
287 339 0.005223
287 340 0.005223
287 341 0.005223
289 342 0.005223
289 343 0.005223
289 344 0.005223
289 345 0.005223
289 346 0.005223
289 347 0.005223
289 348 0.005223
289 349 0.005223
289 350 0.005223
292 351 0.005223
292 352 0.005223
292 353 0.005223
292 354 0.005223
292 355 0.005223
292 356 0.005223
292 357 0.005223
292 358 0.005223
292 359 0.005223
292 360 0.005223
292 361 0.005223
293 362 0.005223
293 363 0.005223
293 364 0.005223
293 365 0.005223
293 366 0.005223
293 367 0.005223
293 368 0.005223
293 369 0.005223
293 370 0.005223
293 371 0.005223
293 372 0.005223
293 373 0.005223
293 374 0.005223
293 375 0.005223
293 376 0.005223
294 377 0.005223
294 378 0.005223
294 379 0.005223
294 380 0.005223
294 381 0.005223
294 382 0.005223
294 383 0.005223
294 384 0.005223
300 385 0.005223
300 386 0.005223
300 387 0.005223
300 388 0.005223
300 389 0.005223
300 390 0.005223
300 391 0.005223
300 392 0.005223
300 393 0.005223
301 394 0.005223
301 395 0.005223
301 396 0.005223
301 397 0.005223
301 398 0.005223
301 399 0.005223
301 400 0.005223
301 401 0.005223
301 402 0.005223
301 403 0.005223
301 404 0.005223
301 405 0.005223
302 406 0.005223
302 407 0.005223
302 408 0.005223
302 409 0.005223
302 410 0.005223
302 411 0.005223
302 412 0.005223
302 413 0.005223
302 414 0.005223
302 415 0.005223
302 416 0.005223
302 417 0.005223
302 418 0.005223
303 419 0.005223
303 420 0.005223
303 421 0.005223
303 422 0.005223
303 423 0.005223
303 424 0.005223
303 425 0.005223
303 426 0.005223
303 427 0.005223
303 428 0.005223
303 429 0.005223
304 430 0.005223
304 431 0.005223
304 432 0.005223
304 433 0.005223
304 434 0.005223
304 435 0.005223
304 436 0.005223
304 437 0.005223
304 438 0.005223
304 439 0.005223
304 440 0.005223
304 441 0.005223
307 442 0.005223
307 443 0.005223
307 444 0.005223
307 445 0.005223
307 446 0.005223
307 447 0.005223
307 448 0.005223
307 449 0.005223
307 450 0.005223
307 451 0.005223
308 452 0.005223
308 453 0.005223
308 454 0.005223
308 455 0.005223
308 456 0.005223
308 457 0.005223
308 458 0.005223
308 459 0.005223
308 460 0.005223
308 461 0.005223
308 462 0.005223
308 463 0.005223
308 464 0.005223
308 465 0.005223
308 466 0.005223
311 467 0.005223
311 468 0.005223
311 469 0.005223
311 470 0.005223
311 471 0.005223
311 472 0.005223
311 473 0.005223
311 474 0.005223
311 475 0.005223
311 476 0.005223
311 477 0.005223
311 478 0.005223
313 479 0.005223
313 480 0.005223
313 481 0.005223
313 482 0.005223
313 483 0.005223
313 484 0.005223
313 485 0.005223
313 486 0.005223
313 487 0.005223
313 488 0.005223
313 489 0.005223
316 490 0.005223
316 491 0.005223
316 492 0.005223
316 493 0.005223
316 494 0.005223
316 495 0.005223
316 496 0.005223
316 497 0.005223
316 498 0.005223
316 499 0.005223
316 500 0.005223
316 501 0.005223
317 502 0.073306
317 503 0.073306
317 504 0.073306
317 505 0.073306
317 506 0.073306
317 507 0.073306
317 508 0.073306
317 509 0.073306
317 510 0.073306
317 511 0.073306
318 512 0.073306
318 513 0.073306
318 514 0.073306
318 515 0.073306
318 516 0.073306
318 517 0.073306
318 518 0.073306
318 519 0.073306
318 520 0.073306
318 521 0.073306
318 522 0.073306
319 523 0.073306
319 524 0.073306
319 525 0.073306
319 526 0.073306
319 527 0.073306
319 528 0.073306
319 529 0.073306
319 530 0.073306
319 531 0.073306
320 532 0.073306
320 533 0.073306
320 534 0.073306
320 535 0.073306
320 536 0.073306
320 537 0.073306
320 538 0.073306
320 539 0.073306
320 540 0.073306
320 541 0.073306
321 542 0.073306
321 543 0.073306
321 544 0.073306
321 545 0.073306
321 546 0.073306
321 547 0.073306
321 548 0.073306
321 549 0.073306
321 550 0.073306
321 551 0.073306
322 552 0.073306
322 553 0.073306
322 554 0.073306
322 555 0.073306
322 556 0.073306
322 557 0.073306
322 558 0.073306
322 559 0.073306
322 560 0.073306
322 561 0.073306
323 562 0.073306
323 563 0.073306
323 564 0.073306
323 565 0.073306
323 566 0.073306
323 567 0.073306
323 568 0.073306
323 569 0.073306
323 570 0.073306
323 571 0.073306
324 572 0.073306
324 573 0.073306
324 574 0.073306
324 575 0.073306
324 576 0.073306
324 577 0.073306
324 578 0.073306
324 579 0.073306
324 580 0.053403
324 581 0.053403
325 582 0.053403
325 583 0.053403
325 584 0.053403
325 585 0.053403
325 586 0.053403
325 587 0.053403
325 588 0.053403
325 589 0.053403
325 590 0.053403
325 591 0.053403
326 592 0.053403
326 593 0.053403
326 594 0.053403
326 595 0.053403
326 596 0.053403
326 597 0.053403
326 598 0.053403
326 599 0.053403
326 600 0.053403
326 601 0.053403
327 602 0.053403
327 603 0.053403
327 604 0.053403
327 605 0.053403
327 606 0.053403
327 607 0.053403
327 608 0.053403
327 609 0.053403
327 610 0.053403
327 611 0.053403
327 612 0.053403
328 613 0.053403
328 614 0.053403
328 615 0.053403
328 616 0.053403
328 617 0.053403
328 618 0.053403
328 619 0.053403
328 620 0.053403
328 621 0.053403
329 622 0.053403
329 623 0.053403
329 624 0.053403
329 625 0.053403
329 626 0.053403
329 627 0.053403
329 628 0.053403
329 629 0.053403
329 630 0.053403
329 631 0.022433
330 632 0.022433
330 633 0.022433
330 634 0.022433
330 635 0.022433
330 636 0.022433
330 637 0.022433
330 638 0.022433
330 639 0.022433
330 640 0.022433
330 641 0.022433
380 642 0.022433
380 643 0.022433
380 644 0.022433
380 645 0.022433
380 646 0.022433
380 647 0.022433
380 648 0.022433
380 649 0.022433
380 650 0.022433
380 651 0.022433
381 652 0.022433
381 653 0.022433
381 654 0.022433
381 655 0.022433
381 656 0.022433
381 657 0.022433
381 658 0.022433
381 659 0.022433
381 660 0.022433
381 661 0.022433
382 662 0.022433
382 663 0.022433
382 664 0.022433
382 665 0.022433
382 666 0.022433
382 667 0.022433
382 668 0.022433
382 669 0.022433
382 670 0.022433
382 671 0.022433
382 672 0.022433
383 673 0.022433
383 674 0.022433
383 675 0.022433
383 676 0.022433
383 677 0.022433
383 678 0.022433
383 679 0.022433
383 680 0.022433
383 681 0.022433
383 682 0.022433
383 683 0.022433
384 684 0.022433
384 685 0.022433
384 686 0.022433
384 687 0.022433
384 688 0.022433
384 689 0.022433
384 690 0.022433
384 691 0.022433
384 692 0.022433
384 693 0.022433
384 694 0.022433
385 695 0.022433
385 696 0.022433
385 697 0.022433
385 698 0.022433
385 699 0.022433
385 700 0.022433
385 701 0.022433
385 702 0.022433
385 703 0.022433
385 704 0.022433
385 705 0.022433
385 706 0.022433
385 707 0.022433
391 708 0.022433
391 709 0.022433
391 710 0.022433
391 711 0.022433
391 712 0.022433
391 713 0.022433
391 714 0.022433
391 715 0.022433
391 716 0.022433
391 717 0.022433
391 718 0.022433
394 719 0.022433
394 720 0.022433
394 721 0.022433
398 722 0.022433
398 723 0.022433
398 724 0.022433
398 725 0.022433
398 726 0.022433
398 727 0.022433
398 728 0.022433
398 729 0.022433
398 730 0.022433
398 731 0.022433
398 732 0.022433
398 733 0.022433
398 734 0.022433
398 735 0.022433
400 736 0.022433
400 737 0.022433
400 738 0.022433
400 739 0.022433
400 740 0.022433
400 741 0.022433
400 742 0.022433
400 743 0.022433
400 744 0.022433
400 745 0.022433
400 746 0.022433
401 747 0.022433
401 748 0.022433
401 749 0.022433
401 750 0.022433
401 751 0.022433
401 752 0.022433
401 753 0.022433
401 754 0.022433
401 755 0.022433
401 756 0.022433
401 757 0.022433
401 758 0.022433
408 759 0.022433
408 760 0.022433
408 761 0.022433
408 762 0.022433
408 763 0.022433
408 764 0.022433
408 765 0.022433
408 766 0.022433
408 767 0.022433
408 768 0.022433
408 769 0.022433
408 770 0.022433
433 771 0.008233
433 772 0.008233
433 773 0.008233
433 774 0.008233
433 775 0.008233
433 776 0.008233
433 777 0.008233
433 778 0.008233
433 779 0.008233
433 780 0.008233
433 781 0.008233
433 782 0.008233
442 783 0.008233
442 784 0.008233
442 785 0.008233
442 786 0.008233
442 787 0.008233
442 788 0.008233
442 789 0.008233
442 790 0.008233
442 791 0.008233
442 792 0.008233
442 793 0.008233
442 794 0.008233
467 795 0.008233
467 796 0.008233
467 797 0.008233
467 798 0.008233
467 799 0.008233
467 800 0.008233
467 801 0.008233
467 802 0.008233
467 803 0.008233
467 804 0.008233
467 805 0.008233
467 806 0.008233
467 807 0.008233
472 808 0.008233
472 809 0.008233
472 810 0.008233
472 811 0.008233
472 812 0.008233
472 813 0.008233
472 814 0.008233
472 815 0.008233
472 816 0.005223
472 817 0.005223
472 818 0.005223
482 819 0.005223
482 820 0.005223
482 821 0.005223
482 822 0.005223
482 823 0.005223
482 824 0.005223
482 825 0.005223
482 826 0.005223
482 827 0.005223
482 828 0.005223
482 829 0.005223
482 830 0.005223
487 831 0.005223
487 832 0.005223
487 833 0.005223
487 834 0.005223
487 835 0.005223
487 836 0.005223
487 837 0.005223
487 838 0.005223
487 839 0.005223
487 840 0.005223
487 841 0.005223
487 842 0.005223
492 843 0.005223
492 844 0.005223
492 845 0.005223
492 846 0.005223
492 847 0.005223
492 848 0.005223
492 849 0.005223
492 850 0.005223
492 851 0.005223
492 852 0.005223
492 853 0.005223
495 854 0.005223
495 855 0.005223
495 856 0.005223
495 857 0.005223
495 858 0.005223
495 859 0.005223
495 860 0.005223
495 861 0.005223
495 862 0.005223
495 863 0.005223
495 864 0.005223
499 865 0.005223
499 866 0.005223
499 867 0.005223
499 868 0.005223
499 869 0.005223
499 870 0.005223
499 871 0.005223
499 872 0.005223
499 873 0.005223
499 874 0.005223
499 875 0.005223
499 876 0.005223
499 877 0.005223
501 878 0.005223
501 879 0.005223
501 880 0.005223
501 881 0.005223
501 882 0.005223
501 883 0.005223
501 884 0.005223
501 885 0.005223
501 886 0.005223
501 887 0.005223
501 888 0.005223
501 889 0.005223
501 890 0.005223
501 891 0.005223
501 892 0.005223
503 893 0.005223
503 894 0.005223
503 895 0.005223
503 896 0.005223
503 897 0.005223
503 898 0.005223
503 899 0.005223
503 900 0.005223
503 901 0.005223
503 902 0.005223
503 903 0.005223
503 904 0.005223
505 905 0.005223
505 906 0.005223
505 907 0.005223
505 908 0.005223
505 909 0.005223
505 910 0.005223
505 911 0.005223
505 912 0.005223
505 913 0.005223
505 914 0.005223
505 915 0.005223
505 916 0.005223
505 917 0.005223
505 918 0.005223
508 919 0.005223
508 920 0.005223
508 921 0.005223
508 922 0.005223
508 923 0.005223
508 924 0.005223
508 925 0.005223
508 926 0.005223
508 927 0.005223
508 928 0.005223
508 929 0.005223
508 930 0.005223
508 931 0.005223
555 932 0.005223
555 933 0.005223
555 934 0.005223
555 935 0.005223
555 936 0.005223
555 937 0.005223
555 938 0.005223
555 939 0.005223
555 940 0.005223
555 941 0.005223
555 942 0.005223
599 943 0.005223
599 944 0.005223
599 945 0.005223
599 946 0.005223
599 947 0.005223
599 948 0.005223
599 949 0.005223
599 950 0.005223
599 951 0.005223
599 952 0.005223
599 953 0.005223
599 954 0.005223
611 955 0.005223
611 956 0.005223
611 957 0.005223
611 958 0.005223
611 959 0.005223
611 960 0.005223
611 961 0.005223
611 962 0.005223
611 963 0.005223
611 964 0.005223
611 965 0.005223
611 966 0.005223
611 967 0.005223
614 968 0.005223
614 969 0.005223
614 970 0.005223
614 971 0.005223
614 972 0.005223
614 973 0.005223
614 974 0.005223
614 975 0.005223
614 976 0.005223
614 977 0.005223
614 978 0.005223
614 979 0.005223
614 980 0.005223
650 981 0.005223
650 982 0.005223
650 983 0.005223
650 984 0.005223
650 985 0.005223
650 986 0.005223
650 987 0.005223
650 988 0.005223
650 989 0.005223
650 990 0.005223
650 991 0.005223
699 992 0.005223
699 993 0.005223
699 994 0.005223
699 995 0.005223
699 996 0.005223
699 997 0.005223
699 998 0.005223
699 999 0.005223
699 1000 0.005223
699 1001 0.005223
