1 2 1
1 3 0.073306
1 4 0.073306
1 5 0.073306
1 6 0.073306
1 7 0.073306
1 8 0.073306
1 9 0.073306
1 10 0.073306
1 11 0.073306
2 12 0.073306
2 13 0.073306
2 14 0.073306
2 15 0.073306
2 16 0.073306
2 17 0.073306
2 18 0.073306
2 19 0.073306
2 20 0.073306
2 21 0.073306
3 22 0.073306
3 23 0.073306
3 24 0.073306
3 25 0.073306
3 26 0.073306
3 27 0.073306
3 28 0.073306
3 29 0.073306
3 30 0.073306
3 31 0.073306
4 32 0.073306
4 33 0.073306
4 34 0.073306
4 35 0.073306
4 36 0.073306
4 37 0.073306
4 38 0.073306
4 39 0.073306
4 40 0.073306
4 41 0.073306
5 42 0.073306
5 43 0.073306
5 44 0.073306
5 45 0.073306
5 46 0.073306
5 47 0.073306
5 48 0.073306
5 49 0.073306
5 50 0.073306
5 51 0.073306
5 52 0.073306
5 53 0.073306
6 54 0.073306
6 55 0.073306
6 56 0.073306
6 57 0.073306
6 58 0.073306
6 59 0.073306
6 60 0.073306
6 61 0.073306
11 62 0.073306
11 63 0.073306
11 64 0.073306
11 65 0.073306
11 66 0.073306
22 67 0.073306
22 68 0.073306
22 69 0.073306
22 70 0.073306
22 71 0.073306
32 72 0.073306
32 73 0.073306
32 74 0.073306
32 75 0.073306
32 76 0.073306
32 77 0.073306
32 78 0.073306
32 79 0.073306
32 80 0.073306
45 81 0.053403
45 82 0.053403
45 83 0.053403
45 84 0.053403
45 85 0.053403
45 86 0.053403
45 87 0.053403
45 88 0.053403
45 89 0.053403
45 90 0.053403
45 91 0.053403
56 92 0.053403
56 93 0.053403
56 94 0.053403
56 95 0.053403
56 96 0.053403
56 97 0.053403
56 98 0.053403
56 99 0.053403
56 100 0.053403
